<mxfile host="app.diagrams.net" modified="2022-09-29T06:33:43.246Z" agent="5.0 (Windows NT 10.0; Win64; x64) AppleWebKit/537.36 (KHTML, like Gecko) Chrome/105.0.0.0 Safari/537.36 Edg/105.0.1343.53" etag="_QPu-Z9YZoQ4_GDkjHcK" version="20.3.7" type="gitlab">
  <diagram name="Page-1" id="03018318-947c-dd8e-b7a3-06fadd420f32">
    <mxGraphModel dx="1050" dy="724" grid="1" gridSize="10" guides="1" tooltips="1" connect="1" arrows="1" fold="1" page="1" pageScale="1" pageWidth="1100" pageHeight="850" background="none" math="0" shadow="0">
      <root>
        <mxCell id="0" />
        <mxCell id="1" parent="0" />
        <mxCell id="KlxluNFkihKldscvtL5W-5" value="" style="rounded=0;whiteSpace=wrap;html=1;" vertex="1" parent="1">
          <mxGeometry x="30" y="51" width="1040" height="549" as="geometry" />
        </mxCell>
        <mxCell id="KlxluNFkihKldscvtL5W-7" value="" style="endArrow=none;html=1;rounded=0;entryX=1.001;entryY=0.203;entryDx=0;entryDy=0;entryPerimeter=0;" edge="1" parent="1">
          <mxGeometry width="50" height="50" relative="1" as="geometry">
            <mxPoint x="30" y="157" as="sourcePoint" />
            <mxPoint x="1071.04" y="159.447" as="targetPoint" />
          </mxGeometry>
        </mxCell>
        <mxCell id="KlxluNFkihKldscvtL5W-8" value="" style="endArrow=none;html=1;rounded=0;entryX=1.001;entryY=0.203;entryDx=0;entryDy=0;entryPerimeter=0;" edge="1" parent="1">
          <mxGeometry width="50" height="50" relative="1" as="geometry">
            <mxPoint x="30" y="516" as="sourcePoint" />
            <mxPoint x="1071.04" y="519.6800000000001" as="targetPoint" />
          </mxGeometry>
        </mxCell>
        <mxCell id="KlxluNFkihKldscvtL5W-9" value="&lt;font style=&quot;font-size: 24px;&quot;&gt;ALL NEWS&lt;/font&gt;" style="rounded=0;whiteSpace=wrap;html=1;" vertex="1" parent="1">
          <mxGeometry x="40" y="70" width="160" height="50" as="geometry" />
        </mxCell>
        <mxCell id="KlxluNFkihKldscvtL5W-10" value="&lt;font style=&quot;font-size: 24px;&quot;&gt;LOGO&lt;/font&gt;" style="rounded=0;whiteSpace=wrap;html=1;" vertex="1" parent="1">
          <mxGeometry x="410" y="70" width="160" height="50" as="geometry" />
        </mxCell>
        <mxCell id="KlxluNFkihKldscvtL5W-11" value="&lt;font style=&quot;font-size: 24px;&quot;&gt;SIGN UP&lt;/font&gt;" style="rounded=0;whiteSpace=wrap;html=1;" vertex="1" parent="1">
          <mxGeometry x="890" y="70" width="160" height="50" as="geometry" />
        </mxCell>
        <mxCell id="KlxluNFkihKldscvtL5W-12" value="&lt;font style=&quot;font-size: 24px;&quot;&gt;LOGIN&lt;/font&gt;" style="rounded=0;whiteSpace=wrap;html=1;" vertex="1" parent="1">
          <mxGeometry x="720" y="70" width="160" height="50" as="geometry" />
        </mxCell>
        <mxCell id="KlxluNFkihKldscvtL5W-13" value="&lt;font style=&quot;font-size: 24px;&quot;&gt;LOGO&lt;/font&gt;" style="rounded=0;whiteSpace=wrap;html=1;" vertex="1" parent="1">
          <mxGeometry x="40" y="530" width="80" height="40" as="geometry" />
        </mxCell>
        <mxCell id="KlxluNFkihKldscvtL5W-14" value="" style="rounded=0;whiteSpace=wrap;html=1;" vertex="1" parent="1">
          <mxGeometry x="30" y="630" width="1040" height="549" as="geometry" />
        </mxCell>
        <mxCell id="KlxluNFkihKldscvtL5W-15" value="" style="whiteSpace=wrap;html=1;aspect=fixed;fontSize=24;" vertex="1" parent="1">
          <mxGeometry x="80" y="200" width="260" height="260" as="geometry" />
        </mxCell>
        <mxCell id="KlxluNFkihKldscvtL5W-16" value="&lt;font style=&quot;font-size: 18px;&quot;&gt;NEWS&lt;/font&gt;" style="rounded=0;whiteSpace=wrap;html=1;fontSize=24;" vertex="1" parent="1">
          <mxGeometry x="210" y="260" width="120" height="30" as="geometry" />
        </mxCell>
        <mxCell id="KlxluNFkihKldscvtL5W-17" value="&lt;font style=&quot;font-size: 18px;&quot;&gt;DETAILS&lt;/font&gt;" style="rounded=0;whiteSpace=wrap;html=1;fontSize=24;" vertex="1" parent="1">
          <mxGeometry x="90" y="410" width="120" height="30" as="geometry" />
        </mxCell>
        <mxCell id="KlxluNFkihKldscvtL5W-18" value="" style="whiteSpace=wrap;html=1;aspect=fixed;fontSize=24;" vertex="1" parent="1">
          <mxGeometry x="400" y="200" width="260" height="260" as="geometry" />
        </mxCell>
        <mxCell id="KlxluNFkihKldscvtL5W-19" value="" style="whiteSpace=wrap;html=1;aspect=fixed;fontSize=24;" vertex="1" parent="1">
          <mxGeometry x="740" y="195.5" width="260" height="260" as="geometry" />
        </mxCell>
        <mxCell id="KlxluNFkihKldscvtL5W-20" value="&lt;font style=&quot;font-size: 18px;&quot;&gt;NEWS&lt;/font&gt;" style="rounded=0;whiteSpace=wrap;html=1;fontSize=24;" vertex="1" parent="1">
          <mxGeometry x="530" y="260" width="120" height="30" as="geometry" />
        </mxCell>
        <mxCell id="KlxluNFkihKldscvtL5W-21" value="&lt;font style=&quot;font-size: 18px;&quot;&gt;DETAILS&lt;/font&gt;" style="rounded=0;whiteSpace=wrap;html=1;fontSize=24;" vertex="1" parent="1">
          <mxGeometry x="410" y="410" width="120" height="30" as="geometry" />
        </mxCell>
        <mxCell id="KlxluNFkihKldscvtL5W-22" value="&lt;font style=&quot;font-size: 18px;&quot;&gt;DETAILS&lt;/font&gt;" style="rounded=0;whiteSpace=wrap;html=1;fontSize=24;" vertex="1" parent="1">
          <mxGeometry x="750" y="410" width="120" height="30" as="geometry" />
        </mxCell>
        <mxCell id="KlxluNFkihKldscvtL5W-23" value="&lt;font style=&quot;font-size: 18px;&quot;&gt;NEWS&lt;/font&gt;" style="rounded=0;whiteSpace=wrap;html=1;fontSize=24;" vertex="1" parent="1">
          <mxGeometry x="870" y="250" width="120" height="30" as="geometry" />
        </mxCell>
        <mxCell id="KlxluNFkihKldscvtL5W-24" value="" style="endArrow=none;html=1;rounded=0;entryX=1.001;entryY=0.203;entryDx=0;entryDy=0;entryPerimeter=0;" edge="1" parent="1">
          <mxGeometry width="50" height="50" relative="1" as="geometry">
            <mxPoint x="28.96" y="722" as="sourcePoint" />
            <mxPoint x="1070" y="725.6800000000001" as="targetPoint" />
          </mxGeometry>
        </mxCell>
        <mxCell id="KlxluNFkihKldscvtL5W-25" value="" style="endArrow=none;html=1;rounded=0;entryX=1.001;entryY=0.203;entryDx=0;entryDy=0;entryPerimeter=0;" edge="1" parent="1">
          <mxGeometry width="50" height="50" relative="1" as="geometry">
            <mxPoint x="28.96" y="1088" as="sourcePoint" />
            <mxPoint x="1070" y="1091.68" as="targetPoint" />
          </mxGeometry>
        </mxCell>
        <mxCell id="KlxluNFkihKldscvtL5W-26" value="&lt;font style=&quot;font-size: 24px;&quot;&gt;ALL NEWS&lt;/font&gt;" style="rounded=0;whiteSpace=wrap;html=1;" vertex="1" parent="1">
          <mxGeometry x="50" y="650" width="160" height="50" as="geometry" />
        </mxCell>
        <mxCell id="KlxluNFkihKldscvtL5W-27" value="&lt;font style=&quot;font-size: 24px;&quot;&gt;LOGO&lt;/font&gt;" style="rounded=0;whiteSpace=wrap;html=1;" vertex="1" parent="1">
          <mxGeometry x="900" y="650" width="160" height="50" as="geometry" />
        </mxCell>
        <mxCell id="KlxluNFkihKldscvtL5W-30" value="" style="rounded=0;whiteSpace=wrap;html=1;fontSize=18;" vertex="1" parent="1">
          <mxGeometry x="330" y="760" width="500" height="300" as="geometry" />
        </mxCell>
        <mxCell id="KlxluNFkihKldscvtL5W-31" value="&lt;font style=&quot;font-size: 24px;&quot;&gt;LOGO&lt;/font&gt;" style="rounded=0;whiteSpace=wrap;html=1;" vertex="1" parent="1">
          <mxGeometry x="40" y="1110" width="80" height="40" as="geometry" />
        </mxCell>
        <mxCell id="KlxluNFkihKldscvtL5W-32" value="&lt;b&gt;&lt;font face=&quot;Times New Roman&quot;&gt;LOG INTO YOUR ACCOUNT&lt;/font&gt;&lt;/b&gt;" style="text;html=1;strokeColor=none;fillColor=none;align=center;verticalAlign=middle;whiteSpace=wrap;rounded=0;fontSize=18;" vertex="1" parent="1">
          <mxGeometry x="450" y="780" width="290" height="30" as="geometry" />
        </mxCell>
        <mxCell id="KlxluNFkihKldscvtL5W-33" value="&lt;font style=&quot;&quot; face=&quot;Times New Roman&quot;&gt;&lt;b&gt;Email address&lt;/b&gt;&lt;/font&gt;" style="text;html=1;strokeColor=none;fillColor=none;align=center;verticalAlign=middle;whiteSpace=wrap;rounded=0;fontSize=18;" vertex="1" parent="1">
          <mxGeometry x="350" y="820" width="125" height="30" as="geometry" />
        </mxCell>
        <mxCell id="KlxluNFkihKldscvtL5W-34" value="" style="rounded=0;whiteSpace=wrap;html=1;fontFamily=Times New Roman;fontSize=18;" vertex="1" parent="1">
          <mxGeometry x="355" y="860" width="375" height="40" as="geometry" />
        </mxCell>
        <mxCell id="KlxluNFkihKldscvtL5W-35" value="&lt;font style=&quot;&quot; face=&quot;Times New Roman&quot;&gt;&lt;b&gt;Password&lt;/b&gt;&lt;/font&gt;" style="text;html=1;strokeColor=none;fillColor=none;align=center;verticalAlign=middle;whiteSpace=wrap;rounded=0;fontSize=18;" vertex="1" parent="1">
          <mxGeometry x="330" y="910" width="125" height="30" as="geometry" />
        </mxCell>
        <mxCell id="KlxluNFkihKldscvtL5W-36" value="" style="rounded=0;whiteSpace=wrap;html=1;fontFamily=Times New Roman;fontSize=18;" vertex="1" parent="1">
          <mxGeometry x="355" y="950" width="375" height="40" as="geometry" />
        </mxCell>
        <mxCell id="KlxluNFkihKldscvtL5W-37" value="LOGIN" style="rounded=0;whiteSpace=wrap;html=1;fontFamily=Times New Roman;fontSize=18;fillColor=#6a00ff;fontColor=#ffffff;strokeColor=#3700CC;" vertex="1" parent="1">
          <mxGeometry x="410" y="1010" width="120" height="40" as="geometry" />
        </mxCell>
        <mxCell id="KlxluNFkihKldscvtL5W-38" value="" style="rounded=0;whiteSpace=wrap;html=1;" vertex="1" parent="1">
          <mxGeometry x="30" y="1210" width="1040" height="580" as="geometry" />
        </mxCell>
        <mxCell id="KlxluNFkihKldscvtL5W-39" value="" style="endArrow=none;html=1;rounded=0;entryX=1.001;entryY=0.203;entryDx=0;entryDy=0;entryPerimeter=0;fontStyle=1" edge="1" parent="1">
          <mxGeometry width="50" height="50" relative="1" as="geometry">
            <mxPoint x="30.000000000000036" y="1304" as="sourcePoint" />
            <mxPoint x="1071.04" y="1307.68" as="targetPoint" />
          </mxGeometry>
        </mxCell>
        <mxCell id="KlxluNFkihKldscvtL5W-40" value="" style="endArrow=none;html=1;rounded=0;entryX=1.001;entryY=0.203;entryDx=0;entryDy=0;entryPerimeter=0;" edge="1" parent="1">
          <mxGeometry width="50" height="50" relative="1" as="geometry">
            <mxPoint x="28.96" y="1705" as="sourcePoint" />
            <mxPoint x="1070" y="1708.68" as="targetPoint" />
          </mxGeometry>
        </mxCell>
        <mxCell id="KlxluNFkihKldscvtL5W-41" value="&lt;font style=&quot;font-size: 24px;&quot;&gt;ALL NEWS&lt;/font&gt;" style="rounded=0;whiteSpace=wrap;html=1;" vertex="1" parent="1">
          <mxGeometry x="40" y="1225" width="160" height="50" as="geometry" />
        </mxCell>
        <mxCell id="KlxluNFkihKldscvtL5W-42" value="&lt;font style=&quot;font-size: 24px;&quot;&gt;LOGO&lt;/font&gt;" style="rounded=0;whiteSpace=wrap;html=1;" vertex="1" parent="1">
          <mxGeometry x="900" y="1230" width="160" height="50" as="geometry" />
        </mxCell>
        <mxCell id="KlxluNFkihKldscvtL5W-43" value="&lt;font style=&quot;font-size: 24px;&quot;&gt;LOGO&lt;/font&gt;" style="rounded=0;whiteSpace=wrap;html=1;" vertex="1" parent="1">
          <mxGeometry x="40" y="1724" width="80" height="40" as="geometry" />
        </mxCell>
        <mxCell id="KlxluNFkihKldscvtL5W-44" value="" style="rounded=0;whiteSpace=wrap;html=1;fontSize=18;" vertex="1" parent="1">
          <mxGeometry x="292.5" y="1320" width="500" height="370" as="geometry" />
        </mxCell>
        <mxCell id="KlxluNFkihKldscvtL5W-45" value="&lt;font face=&quot;Times New Roman&quot;&gt;&lt;b&gt;CREATE A NEW ACCOUNT&lt;/b&gt;&lt;/font&gt;" style="text;html=1;strokeColor=none;fillColor=none;align=center;verticalAlign=middle;whiteSpace=wrap;rounded=0;fontSize=18;" vertex="1" parent="1">
          <mxGeometry x="390" y="1330" width="290" height="30" as="geometry" />
        </mxCell>
        <mxCell id="KlxluNFkihKldscvtL5W-46" value="&lt;font style=&quot;&quot; face=&quot;Times New Roman&quot;&gt;&lt;b&gt;Name&lt;/b&gt;&lt;/font&gt;" style="text;html=1;strokeColor=none;fillColor=none;align=center;verticalAlign=middle;whiteSpace=wrap;rounded=0;fontSize=18;" vertex="1" parent="1">
          <mxGeometry x="300" y="1358" width="60" height="30" as="geometry" />
        </mxCell>
        <mxCell id="KlxluNFkihKldscvtL5W-47" value="" style="rounded=0;whiteSpace=wrap;html=1;fontFamily=Times New Roman;fontSize=18;" vertex="1" parent="1">
          <mxGeometry x="305" y="1390" width="375" height="20" as="geometry" />
        </mxCell>
        <mxCell id="KlxluNFkihKldscvtL5W-48" value="&lt;font style=&quot;&quot; face=&quot;Times New Roman&quot;&gt;&lt;b&gt;Email address&lt;/b&gt;&lt;/font&gt;" style="text;html=1;strokeColor=none;fillColor=none;align=center;verticalAlign=middle;whiteSpace=wrap;rounded=0;fontSize=18;" vertex="1" parent="1">
          <mxGeometry x="305" y="1413" width="115" height="30" as="geometry" />
        </mxCell>
        <mxCell id="KlxluNFkihKldscvtL5W-50" value="" style="rounded=0;whiteSpace=wrap;html=1;fontFamily=Times New Roman;fontSize=18;" vertex="1" parent="1">
          <mxGeometry x="305" y="1444" width="375" height="26" as="geometry" />
        </mxCell>
        <mxCell id="KlxluNFkihKldscvtL5W-51" value="&lt;font style=&quot;&quot; face=&quot;Times New Roman&quot;&gt;&lt;b&gt;Password&lt;/b&gt;&lt;/font&gt;" style="text;html=1;strokeColor=none;fillColor=none;align=center;verticalAlign=middle;whiteSpace=wrap;rounded=0;fontSize=18;" vertex="1" parent="1">
          <mxGeometry x="305" y="1475" width="85" height="30" as="geometry" />
        </mxCell>
        <mxCell id="KlxluNFkihKldscvtL5W-52" value="" style="rounded=0;whiteSpace=wrap;html=1;fontFamily=Times New Roman;fontSize=18;" vertex="1" parent="1">
          <mxGeometry x="305" y="1505" width="375" height="26" as="geometry" />
        </mxCell>
        <mxCell id="KlxluNFkihKldscvtL5W-53" value="&lt;font style=&quot;&quot; face=&quot;Times New Roman&quot;&gt;&lt;b&gt;Conform Password&lt;/b&gt;&lt;/font&gt;" style="text;html=1;strokeColor=none;fillColor=none;align=center;verticalAlign=middle;whiteSpace=wrap;rounded=0;fontSize=18;" vertex="1" parent="1">
          <mxGeometry x="305" y="1538" width="155" height="30" as="geometry" />
        </mxCell>
        <mxCell id="KlxluNFkihKldscvtL5W-54" value="" style="rounded=0;whiteSpace=wrap;html=1;fontFamily=Times New Roman;fontSize=18;" vertex="1" parent="1">
          <mxGeometry x="305" y="1568" width="375" height="26" as="geometry" />
        </mxCell>
        <mxCell id="KlxluNFkihKldscvtL5W-55" value="&lt;font style=&quot;&quot; face=&quot;Times New Roman&quot;&gt;&lt;b&gt;Role&lt;/b&gt;&lt;/font&gt;" style="text;html=1;strokeColor=none;fillColor=none;align=center;verticalAlign=middle;whiteSpace=wrap;rounded=0;fontSize=18;" vertex="1" parent="1">
          <mxGeometry x="305" y="1610" width="45" height="30" as="geometry" />
        </mxCell>
        <mxCell id="KlxluNFkihKldscvtL5W-69" value="" style="ellipse;whiteSpace=wrap;html=1;aspect=fixed;fontFamily=Times New Roman;fontSize=18;fillColor=#f5f5f5;gradientColor=#b3b3b3;strokeColor=#666666;" vertex="1" parent="1">
          <mxGeometry x="305" y="1640" width="15" height="15" as="geometry" />
        </mxCell>
        <mxCell id="KlxluNFkihKldscvtL5W-70" value="&lt;font style=&quot;&quot; face=&quot;Times New Roman&quot;&gt;User&lt;/font&gt;" style="text;html=1;strokeColor=none;fillColor=none;align=center;verticalAlign=middle;whiteSpace=wrap;rounded=0;fontSize=18;" vertex="1" parent="1">
          <mxGeometry x="320" y="1632.5" width="45" height="30" as="geometry" />
        </mxCell>
        <mxCell id="KlxluNFkihKldscvtL5W-71" value="" style="ellipse;whiteSpace=wrap;html=1;aspect=fixed;fontFamily=Times New Roman;fontSize=18;fillColor=#f5f5f5;gradientColor=#b3b3b3;strokeColor=#666666;" vertex="1" parent="1">
          <mxGeometry x="385" y="1640" width="15" height="15" as="geometry" />
        </mxCell>
        <mxCell id="KlxluNFkihKldscvtL5W-72" value="" style="ellipse;whiteSpace=wrap;html=1;aspect=fixed;fontFamily=Times New Roman;fontSize=18;fillColor=#f5f5f5;gradientColor=#b3b3b3;strokeColor=#666666;" vertex="1" parent="1">
          <mxGeometry x="610" y="1640" width="15" height="15" as="geometry" />
        </mxCell>
        <mxCell id="KlxluNFkihKldscvtL5W-73" value="&lt;font style=&quot;&quot; face=&quot;Times New Roman&quot;&gt;Subject matter Expert&lt;/font&gt;" style="text;html=1;strokeColor=none;fillColor=none;align=center;verticalAlign=middle;whiteSpace=wrap;rounded=0;fontSize=18;" vertex="1" parent="1">
          <mxGeometry x="400" y="1632.5" width="180" height="30" as="geometry" />
        </mxCell>
        <mxCell id="KlxluNFkihKldscvtL5W-74" value="&lt;font style=&quot;&quot; face=&quot;Times New Roman&quot;&gt;Pharmacist&lt;/font&gt;" style="text;html=1;strokeColor=none;fillColor=none;align=center;verticalAlign=middle;whiteSpace=wrap;rounded=0;fontSize=18;" vertex="1" parent="1">
          <mxGeometry x="625" y="1632.5" width="85" height="30" as="geometry" />
        </mxCell>
        <mxCell id="KlxluNFkihKldscvtL5W-75" value="SIGNUP" style="rounded=0;whiteSpace=wrap;html=1;fontFamily=Times New Roman;fontSize=18;fillColor=#6a00ff;fontColor=#ffffff;strokeColor=#3700CC;" vertex="1" parent="1">
          <mxGeometry x="310" y="1662.5" width="120" height="25" as="geometry" />
        </mxCell>
      </root>
    </mxGraphModel>
  </diagram>
</mxfile>
